…
``` r
homicide_df =
  read_csv("./homicide-data.csv") %>% 
  mutate(
    city_state = str_c(city, ", ", state)
  )
```

``` r
homicide_df %>% 
  group_by(city_state) %>% 
  summarize(total = str_count(disposition), unsolved = (str_count(disposition, "Closed without arrest") + str_count(disposition, "Open/No arrest") ))
```

    ## # A tibble: 52,179 × 3
    ## # Groups:   city_state [51]
    ##    city_state      total unsolved
    ##    <chr>           <int>    <int>
    ##  1 Albuquerque, NM    21        1
    ##  2 Albuquerque, NM    16        0
    ##  3 Albuquerque, NM    21        1
    ##  4 Albuquerque, NM    16        0
    ##  5 Albuquerque, NM    21        1
    ##  6 Albuquerque, NM    14        1
    ##  7 Albuquerque, NM    16        0
    ##  8 Albuquerque, NM    16        0
    ##  9 Albuquerque, NM    14        1
    ## 10 Albuquerque, NM    14        1
    ## # … with 52,169 more rows
…
